\relax 
\catcode `"\active 
\catcode `<\active 
\catcode `>\active 
\@nameuse{es@quoting}
\select@language{spanish}
\@writefile{toc}{\select@language{spanish}}
\@writefile{lof}{\select@language{spanish}}
\@writefile{lot}{\select@language{spanish}}
\@writefile{toc}{\contentsline {section}{\numberline {1}Seguridad en la Ejecuci\IeC {\'o}n}{2}}
\@writefile{toc}{\contentsline {section}{\numberline {2}Objetivos de aprendizaje}{2}}
\@writefile{toc}{\contentsline {section}{\numberline {3}Material y equipo}{2}}
\@writefile{toc}{\contentsline {section}{\numberline {4}Actividad de previa}{2}}
\@writefile{toc}{\contentsline {subsection}{\numberline {4.1}Preguntas}{2}}
\@writefile{toc}{\contentsline {subsection}{\numberline {4.2}Respuestas}{3}}
\@writefile{toc}{\contentsline {section}{\numberline {5}Desarrollo}{3}}
\@writefile{toc}{\contentsline {section}{\numberline {6}Conclusiones}{4}}
\bibstyle{plain}
\bibdata{Referencias}
\@writefile{toc}{\contentsline {section}{\numberline {7}Bibliograf\IeC {\'\i }a}{5}}
