\relax 
\catcode `"\active 
\catcode `<\active 
\catcode `>\active 
\@nameuse{es@quoting}
\select@language{spanish}
\@writefile{toc}{\select@language{spanish}}
\@writefile{lof}{\select@language{spanish}}
\@writefile{lot}{\select@language{spanish}}
\@writefile{toc}{\contentsline {section}{\numberline {1}Seguridad en la Ejecuci\IeC {\'o}n}{2}}
\@writefile{toc}{\contentsline {section}{\numberline {2}Objetivos de aprendizaje}{2}}
\@writefile{toc}{\contentsline {section}{\numberline {3}Material y equipo}{2}}
\@writefile{toc}{\contentsline {section}{\numberline {4}Actividad de investigaci\IeC {\'o}n}{2}}
\@writefile{toc}{\contentsline {section}{\numberline {5}Desarrollo}{5}}
\@writefile{toc}{\contentsline {subsection}{\numberline {5.1}Directivas}{5}}
\@writefile{lof}{\contentsline {figure}{\numberline {1}{\ignorespaces Diagrama de memoria\relax }}{6}}
\@writefile{toc}{\contentsline {section}{\numberline {6}Conclusiones}{6}}
\bibstyle{plain}
\bibdata{Referencias}
\@writefile{toc}{\contentsline {section}{\numberline {7}Anexo}{7}}
\@writefile{toc}{\contentsline {section}{\numberline {8}Bibliograf\IeC {\'\i }a}{7}}
