\select@language {spanish}
\contentsline {figure}{\numberline {1}{\ignorespaces Circuito}}{2}
\contentsline {figure}{\numberline {2}{\ignorespaces Muestra de componetes}}{3}
\contentsline {figure}{\numberline {3}{\ignorespaces Par\IeC {\'a}metros caracter\IeC {\'\i }sticos de una forma sinusoidal.}}{5}
\contentsline {figure}{\numberline {4}{\ignorespaces Prueba de pgfplots con etiquetas en ejes y de funciones}}{5}
\contentsline {figure}{\numberline {5}{\ignorespaces Consumo energ\IeC {\'\i }a el\IeC {\'e}ctrica [kWh]}}{6}
\contentsline {figure}{\numberline {6}{\ignorespaces \IeC {\'U}ltimos periodos}}{6}
\contentsline {figure}{\numberline {7}{\ignorespaces Se\IeC {\~n}al cuadrada unitaria}}{7}
