\relax 
\catcode `"\active 
\catcode `<\active 
\catcode `>\active 
\@nameuse{es@quoting}
\select@language{spanish}
\@writefile{toc}{\select@language{spanish}}
\@writefile{lof}{\select@language{spanish}}
\@writefile{lot}{\select@language{spanish}}
\@writefile{toc}{\contentsline {section}{\numberline {1}Seguridad en la Ejecuci\IeC {\'o}n}{2}}
\@writefile{toc}{\contentsline {section}{\numberline {2}Objetivos de aprendizaje}{2}}
\@writefile{toc}{\contentsline {section}{\numberline {3}Material y equipo}{2}}
\@writefile{toc}{\contentsline {section}{\numberline {4}Actividad de investigaci\IeC {\'o}n}{2}}
\@writefile{toc}{\contentsline {subsection}{\numberline {4.1}Preguntas}{2}}
\citation{Kit}
\citation{Kit}
\@writefile{toc}{\contentsline {section}{\numberline {5}Respuestas}{3}}
\@writefile{toc}{\contentsline {section}{\numberline {6}Desarrollo}{3}}
\citation{TexasInstrumentsInc.2014}
\citation{TexasInstrumentsInc.2014}
\bibstyle{plain}
\bibdata{MyCollection}
\bibcite{Kit}{1}
\@writefile{lof}{\contentsline {figure}{\numberline {1}{\ignorespaces Fuente \cite  {Kit}\relax }}{4}}
\@writefile{toc}{\contentsline {section}{\numberline {7}Conclusiones}{4}}
\bibcite{TexasInstrumentsInc.2014}{2}
\@writefile{lof}{\contentsline {figure}{\numberline {2}{\ignorespaces Diagrama de conecciones de switches de usuario\relax }}{5}}
