This is BibTeX, Version 0.99d (TeX Live 2016/Debian)
Capacity: max_strings=100000, hash_size=100000, hash_prime=85009
The top-level auxiliary file: Practica1.aux
The style file: plain.bst
Database file #1: MyCollection.bib
Warning--empty journal in Kit
Warning--empty year in Kit
Warning--empty journal in TexasInstrumentsInc.2014
Warning--there's a number but no volume in TexasInstrumentsInc.2014
You've used 2 entries,
            2118 wiz_defined-function locations,
            506 strings with 4189 characters,
and the built_in function-call counts, 433 in all, are:
= -- 37
> -- 14
< -- 0
+ -- 6
- -- 4
* -- 26
:= -- 84
add.period$ -- 5
call.type$ -- 2
change.case$ -- 8
chr.to.int$ -- 0
cite$ -- 6
duplicate$ -- 20
empty$ -- 36
format.name$ -- 4
if$ -- 81
int.to.chr$ -- 0
int.to.str$ -- 2
missing$ -- 2
newline$ -- 12
num.names$ -- 4
pop$ -- 13
preamble$ -- 1
purify$ -- 6
quote$ -- 0
skip$ -- 12
stack$ -- 0
substring$ -- 10
swap$ -- 0
text.length$ -- 0
text.prefix$ -- 0
top$ -- 0
type$ -- 8
warning$ -- 4
while$ -- 4
width$ -- 3
write$ -- 19
(There were 4 warnings)
