\relax 
\catcode `"\active 
\catcode `<\active 
\catcode `>\active 
\@nameuse{es@quoting}
\select@language{spanish}
\@writefile{toc}{\select@language{spanish}}
\@writefile{lof}{\select@language{spanish}}
\@writefile{lot}{\select@language{spanish}}
\@writefile{toc}{\contentsline {section}{\numberline {1}Seguridad en la Ejecuci\IeC {\'o}n}{2}}
\@writefile{toc}{\contentsline {section}{\numberline {2}Objetivos de aprendizaje}{2}}
\@writefile{toc}{\contentsline {section}{\numberline {3}Material y equipo}{2}}
\@writefile{toc}{\contentsline {section}{\numberline {4}Actividad de investigaci\IeC {\'o}n}{2}}
\@writefile{toc}{\contentsline {section}{\numberline {5}Desarrollo}{3}}
\@writefile{toc}{\contentsline {section}{\numberline {6}Cuestionario}{7}}
\@writefile{toc}{\contentsline {subsection}{\numberline {6.1}Preguntas}{7}}
\@writefile{toc}{\contentsline {subsection}{\numberline {6.2}Respuestas}{7}}
\@writefile{toc}{\contentsline {subsubsection}{\numberline {6.2.1}do while}{7}}
\@writefile{toc}{\contentsline {subsubsection}{\numberline {6.2.2}while do}{7}}
\@writefile{toc}{\contentsline {subsubsection}{\numberline {6.2.3}if}{7}}
\bibstyle{plain}
\bibdata{Referencias}
\bibcite{Angelo-kun2015}{1}
\@writefile{toc}{\contentsline {section}{\numberline {7}Conclusiones}{8}}
\@writefile{toc}{\contentsline {section}{\numberline {8}Bibliograf\IeC {\'\i }a}{8}}
